<svg width="19" height="22" viewBox="0 0 19 22" fill="none" xmlns="http://www.w3.org/2000/svg">
<path fill-rule="evenodd" clip-rule="evenodd" d="M2.6858 7.5134C2.8109 6.51255 3.66171 5.76147 4.67035 5.76147H14.4727C15.4814 5.76147 16.3322 6.51255 16.4573 7.51341L17.8621 18.7517C18.0113 19.9454 17.0805 20.9998 15.8775 20.9998H3.26557C2.06257 20.9998 1.1318 19.9454 1.28101 18.7517L2.6858 7.5134Z" stroke="white"/>
<path d="M13.3811 7.66676V4.80958C13.3811 2.70561 11.6755 1 9.57151 1V1C7.46754 1 5.76193 2.7056 5.76193 4.80958V7.66676" stroke="white" stroke-linecap="round" stroke-linejoin="round"/>
</svg>
