<svg width="22" height="23" viewBox="0 0 22 23" fill="none" xmlns="http://www.w3.org/2000/svg">
<path d="M19.5 9.05273C19.5 12.3518 17.3671 15.4799 15.137 17.8339C14.0322 19.0001 12.9257 19.9531 12.0948 20.6147C11.6797 20.9452 11.3345 21.2022 11.094 21.3759C11.0606 21.4 11.0292 21.4225 11 21.4434C10.9708 21.4225 10.9394 21.4 10.906 21.3759C10.6655 21.2022 10.3203 20.9452 9.90521 20.6147C9.07433 19.9531 7.96781 19.0001 6.86298 17.8339C4.63287 15.4799 2.5 12.3518 2.5 9.05273C2.5 4.35831 6.30558 0.552734 11 0.552734C15.6944 0.552734 19.5 4.35831 19.5 9.05273Z" stroke="black"/>
<circle cx="11" cy="9.05273" r="4.5" stroke="black"/>
</svg>
